[0],[1],[2],[3],[4],[5],[6],[7],[8],[9]
0.3691287,0.2543477,-0.6805359,0.40536374,-0.2727697,-0.3842373,1.3606175,0.51525265,-0.0068283887,-0.42519143
-1.2570243,-0.84361213,0.13284482,-1.2652932,-1.3897322,0.02440013,-1.2370803,-1.6506358,-0.32561305,0.45235258
-0.18517567,-0.41328102,-0.10815094,-0.4051519,-0.29769662,-0.06958242,0.5562639,-0.6562882,0.60657316,0.33667603
-1.3543763,-0.53233564,0.7005686,0.79631597,-0.45822865,1.0101796,-0.20543025,0.27472454,-0.07688595,0.07208041
0.12021379,0.300193,-0.56279635,0.06934515,0.1527673,-0.03478809,-0.04618003,-0.9665271,0.24183874,-0.85895926
0.6364587,-0.9246247,0.3928031,-1.3241769,-0.9518031,-0.8343428,0.64393485,-0.535766,-0.5563592,0.17426945
0.60491234,0.17181046,0.50911796,0.57033086,0.02506462,-0.303004,0.13747874,-1.0024124,-1.3513557,0.01821287
0.37955976,0.49653977,-0.27407005,0.13314542,0.34429199,0.79535574,0.8332943,-0.32415456,0.41541702,-0.081402875
1.1125389,0.041328773,-0.08912117,-0.13746539,0.5160838,-0.68064934,-0.99741286,0.25401652,0.098137334,0.5598441
0.05258604,0.17206383,-0.9104735,-0.510248,-0.17451735,0.012802917,-0.32758778,-0.5606737,-0.48854044,1.00919
-0.17951372,0.82341707,-0.4756152,0.6003909,1.3144072,0.2491984,-0.48034674,1.0218133,0.96150565,0.57993656
1.0810424,0.26434577,-0.05479975,-0.013673247,-0.46518904,0.7809322,0.08659408,0.2782679,0.58651483,1.211059
-0.8264171,0.105486676,-1.2091377,-0.10801782,0.7595387,-0.1782655,-1.2736242,-0.4188964,0.24920122,-0.95424783
-0.8535777,0.18133198,0.39438182,-1.0612508,0.06340273,-0.72986573,-0.22887434,0.026649045,0.890315,-0.2691284
0.71508294,-1.3731582,-1.0235823,-0.37365678,0.84486437,0.2787565,-0.7960754,1.36627,0.09499429,1.1468097
0.79869264,-0.6357193,1.2053342,0.6014336,0.081712164,0.5082144,-0.63822645,0.5838091,1.0437263,1.3328393
0.13896097,0.07067145,0.7947462,0.36413836,0.3650133,-0.19037041,0.6721915,0.550077,-0.83008367,1.4336404
0.24832962,1.0155057,-1.1251596,-0.5993805,-0.36147642,0.77703834,0.70225227,0.16407548,-0.6471639,-0.7209237
-0.5772165,0.56971693,-0.18794443,0.6391329,-0.809436,0.3206345,0.4934988,0.028606815,-0.7511637,-0.23269486
1.0747722,-1.059214,1.1227689,-1.01451,0.07436849,-1.1231867,1.1497827,-0.39005816,-0.9152197,-0.1492812
0.0045080935,0.03823183,-0.3587581,1.300868,-0.3238212,-0.031213501,0.040207464,-0.18443859,-0.512467,-0.22409348
-0.12984255,0.6896775,1.0380633,-0.2670271,0.14815658,1.0426393,-0.7053388,0.4959932,-0.83280724,-0.55758804
-1.0355527,0.25915116,0.55178213,-0.42660138,-0.7244726,-1.00049,-0.8127074,0.32223353,-0.16973016,0.69346637
-0.6371047,1.0347341,-0.030524628,-0.9513875,1.1582586,-1.2817718,-0.5708692,1.867543,-0.7183061,0.26490945
0.08285747,-0.24949025,-0.23852625,-0.22822301,0.6920959,0.7318048,-0.19944175,0.85460365,0.88492256,1.2495365
0.7429251,0.18556163,1.2524155,0.14453197,0.35176387,0.5083617,-0.7066327,0.29935408,1.2371407,1.1678551
-0.17626224,0.40622532,0.15115066,1.1741196,-0.3828562,-0.62164843,-0.64308494,1.1001678,-1.0810949,-0.8885631
-0.18504101,-0.9498048,0.023714129,0.71184343,-0.4184996,0.94726306,0.9398557,-0.8253627,-0.07420303,0.43622866
1.3243364,-0.10778007,1.4014534,-0.5077314,-0.44374555,-1.569917,-1.0483588,0.37465736,-0.688615,0.12160005
-0.10880392,0.62557465,-0.28724176,-0.81481045,-0.2939153,-0.46523285,0.07140857,0.32662344,0.3894797,0.4335582
-0.45313305,-0.28842312,0.3495102,-0.22034623,0.69062257,0.6224214,0.2637312,-0.2885902,0.9309347,1.2287463
0.42789397,-0.04185801,0.39264283,-0.40736327,-0.780699,0.44189227,0.6705032,0.11020317,0.051883876,-0.7875485
-0.4832502,-0.75276846,0.15972403,-0.40818512,0.962512,-0.72277766,1.1102234,-0.41933045,-0.32114357,0.44240385
-0.3727578,-1.230428,-0.66249293,-1.2427984,-0.18822873,-0.109124646,0.52400243,-0.5562007,-0.29041454,-0.35384253
-0.108030096,0.46098602,0.274714,0.91629785,0.65411204,0.47187847,1.1499654,1.1331449,0.60212874,0.3150574
0.03730628,-1.2404712,0.51258624,0.767388,0.103119254,-0.51975346,-0.81023866,0.59759086,0.6197535,0.29463133
1.5272052,-0.5525317,-1.5554018,-0.29168427,-0.8079693,1.1181535,-0.3853551,0.9282628,-0.8530636,-1.1326103
-0.22075064,-0.59816664,0.93306273,0.119995415,0.59264004,1.3427008,0.7869124,0.49129534,1.0577948,-0.17408086
-0.3214455,-1.5327775,-0.18618588,0.27478927,1.2960643,-0.6285073,0.20356625,0.25811782,0.23289026,-1.4941521
0.022448169,-0.2844745,-0.39097285,-0.13798714,-0.10257986,-0.909876,0.6739549,0.42281494,0.45116082,0.49106157
-0.44081077,-0.80509347,-0.4633643,-0.31240368,1.4723189,-0.46767223,0.54101676,0.9665078,-1.6187786,1.0908153
-0.9445525,-1.5346948,-0.5420568,0.42536744,-0.9902935,-1.4771881,0.22283934,-0.3663985,-0.66724473,-0.019751178
-0.2280794,-0.57347536,-0.1994919,-1.1823959,1.476395,0.40384465,0.10542355,0.0042028455,-0.2132447,-0.026870573
-0.3607545,-0.3159246,-0.88150257,-0.80601937,-0.84442514,-1.8636978,0.7237526,-0.5436618,0.56654435,0.07920277
-0.3778002,-0.34265918,0.74790037,-1.1891809,-0.8424419,0.7817486,-0.21383815,1.1196401,0.1711547,-1.2125562
-0.30743548,-0.57044536,-0.7549113,-0.4392683,0.3285392,0.38398537,-0.956875,0.20018183,0.13076064,-0.8644778
0.2624834,0.68792367,0.0756317,-0.49807692,0.02842647,0.67869496,0.64594316,0.11274688,1.6076127,1.0373164
0.61928004,-0.49082926,1.2413646,-0.9244012,0.93003404,0.39290366,0.24370694,-0.6790613,0.0512442,-0.009782483
0.112419605,-0.41068703,-0.18646374,-0.763351,-0.7290501,0.44709048,0.26272377,-0.93541807,-1.2341763,0.68884224
