[0],[1],[2],[3],[4],[5],[6],[7],[8],[9]
1.2674834,0.258089,0.17958571,0.20906116,-0.61969274,-0.26687062,-0.4623908,0.4732251,-0.38012367,-0.027269166
-0.37447792,0.33768204,-1.0362533,-0.7811378,-0.6126945,-1.1010987,-1.1029359,-0.04423181,-1.15645,0.045094185
0.06858001,-0.21450277,0.47666577,0.83595383,-0.018005416,-0.1463018,-0.8700824,0.40899312,0.99276733,0.681421
-0.4170631,-0.08005009,-0.81638485,0.8461974,-0.28192893,-0.19539621,-0.42345777,-0.23533921,-0.20031385,0.46714112
-0.34239832,0.27720195,0.13046391,1.427635,1.0581799,-0.09653115,0.26713565,-0.38728023,-0.2705665,0.54009414
-0.9099451,-1.0491142,-1.2539281,-0.50711656,-0.3716103,-0.5007503,-0.17222427,0.3865933,-0.7318093,0.09553443
-0.03749828,0.90541005,-0.58834994,-0.39644855,1.0209765,0.65670234,-0.36827996,-0.30716562,-0.022712352,1.0501728
0.37730077,0.01695127,-0.51321524,0.8961534,1.1207423,0.5711909,1.3012701,-0.34332526,-0.28922135,0.5719837
1.3193841,-1.133787,1.5304462,0.6399229,-0.86128783,-0.9320764,-0.72658116,0.9617667,-1.2496266,-0.8164296
-0.7749263,-0.62463385,0.5740556,-0.6882697,-0.3406389,0.04049266,-0.43847567,0.30877608,-0.10463527,0.58875483
0.5759234,-0.16990218,-0.9806176,0.18030265,-1.1365213,-0.77222943,-0.4172788,-1.1923727,-0.430066,-1.0139146
-0.8690339,0.52483386,-1.277385,-0.93430066,-0.57318014,-0.86996335,-0.6953085,-0.23218827,-0.8684688,-0.93115544
0.56091857,0.9622598,0.37950015,0.3446591,-0.11146568,0.7798179,0.659586,-0.9264605,-1.0798581,-0.08238772
0.44852757,-0.31863853,-0.1310995,-0.16416599,-0.82718843,0.49862412,0.7137431,1.0026497,-0.3076773,1.282007
-0.006704687,-0.17097905,-1.0646739,0.28913838,0.3883952,-1.2040244,-0.6878908,0.52269953,-0.18373333,-0.5845616
-0.04419516,0.49401593,0.7461646,-0.9840644,1.2965802,0.856622,-1.5280604,0.4061791,0.42328525,0.21015164
-0.25175744,0.3056836,0.03651032,1.3075845,0.7503648,-0.36994123,0.61143017,0.042346936,0.5986114,1.3806188
0.80614084,0.7641143,-0.15341046,0.44875613,0.2829394,-0.39557156,1.0168171,-0.8771718,0.81213,-0.28820527
1.0468895,0.76598525,-0.08571921,-0.1724687,-0.5856695,0.027750848,-0.5725659,0.39492103,1.1724335,0.40260088
-0.0031301607,0.268435,-0.38496462,0.38950697,-0.14353195,0.5842602,0.9547794,0.09568677,-0.4856651,-0.2407421
0.5170489,0.23803163,-0.46021852,0.5071265,0.3865273,-0.8054132,-0.9601135,0.8868016,-0.32122105,-0.5522099
-0.4620232,0.5012082,-1.9803349,1.201714,0.64999855,0.6572045,-0.5939348,1.4453472,1.1740788,-0.2626739
1.0052745,1.0779096,0.21776305,0.79748875,0.39361614,0.34000129,1.0975841,0.9438597,-0.33645153,-0.20885062
0.54648507,0.51507705,0.050699405,0.53438073,-0.26466954,1.4139427,-0.51530856,0.40535688,0.05427478,0.30246294
-0.5053705,0.65318197,0.24127197,0.08879338,0.16744787,-0.840436,-0.51541525,-0.93145144,0.33367798,1.2671052
-0.53870267,1.0245397,0.49684668,0.5644456,0.34623128,0.78711987,-0.17778115,0.5654273,0.7371451,1.1055373
-0.25965595,0.8475624,-0.26969305,1.1268462,-0.61187464,-0.59340346,-0.51640016,-0.73588955,0.8433845,0.022771835
-0.13238627,-0.82358164,0.43422768,0.32875314,0.75507617,0.5738306,-0.3327177,-0.42757708,-0.41489673,0.42121416
0.2518281,0.18633091,-0.53568923,-0.6583504,-0.6722493,0.055692382,-0.44576666,0.81613016,-0.2383666,1.22523
-0.12767264,-0.24168098,-0.19673523,-0.8089319,-1.1970347,-0.1252598,-0.18752374,0.08993796,0.48768145,0.23081821
1.5074668,-0.38803315,-1.1007762,-0.51059127,-0.8228816,0.6353524,-0.7704747,1.0722436,-0.40637726,-1.4344041
0.55308104,-0.50137144,-0.51960546,0.009202341,1.3566716,-1.1124268,0.2543607,-0.12538984,-0.4214925,-1.0257137
0.14620064,0.07300904,-1.1272528,1.2580534,0.23190391,0.947594,-0.014775287,-0.59585696,-0.98010784,0.03341619
-0.5144661,-0.34466764,0.15875944,-0.7764179,-0.85655713,1.263837,-1.392333,-0.73243994,0.2033732,0.007985314
0.5484846,-2.599571,-0.018039254,1.0263771,0.33512405,0.48718685,0.14357494,-0.9178237,1.607885,1.0373819
0.8225024,-0.6930534,0.41628593,-0.8116383,-0.6179008,0.55906343,0.86740994,0.8274767,-0.2471202,0.64531505
0.4862943,0.96400577,1.2466805,0.6499236,0.07824983,-0.42759323,-0.29399717,1.3086761,0.7039006,1.5291694
0.58956367,-0.5302772,-0.18471289,0.29667205,-0.010844222,-0.96444476,0.12584719,0.24960317,0.45373675,-0.0145694725
0.6272006,0.3991889,-0.23317583,0.8548561,0.40784544,1.4534385,-0.14816491,-0.48150313,0.8864575,1.1004503
-0.20182326,-0.72008336,-0.24226028,-0.5153589,-0.3741436,-1.179947,-0.6591951,-0.5681168,-1.2865324,-0.7465416
-0.6538481,0.4431688,0.32889637,0.71326137,-0.5916294,-0.66823006,-1.0160602,0.046433963,0.15674488,0.3455069
-0.59230304,0.10112867,0.010453172,-0.0021202066,1.0141152,0.33944353,0.5993171,0.35762107,0.939159,-0.04850553
-0.5067896,0.8476396,1.0666492,0.8010454,-0.67028236,0.6137182,-0.8618695,0.9512688,-1.4965348,1.0888358
2.0439415,-0.63458633,-0.7714536,-1.1794788,0.1323408,-1.8577329,-0.85898626,-0.15535492,0.41270578,0.8283467
-0.36602992,0.7645377,0.8914282,1.1993563,0.26929098,-0.47000098,-1.3557622,0.10573143,1.2024268,0.6449901
0.92936456,0.8862607,0.59555006,1.227511,-2.572863,1.6292427,0.52099127,-1.9498795,1.6096486,-1.3729854
-0.39804834,1.1015906,0.4608009,0.40932295,-0.46764743,-0.15028127,-0.43403742,1.3728151,0.6125524,0.016394446
0.68022925,0.71330476,0.19962353,0.08902388,-0.2739241,-0.7010123,-0.72976553,-0.005795252,0.24016106,0.56759936
-0.36067694,-0.4222463,0.7344455,-0.35800007,1.0386196,0.3890962,-0.55148613,0.64920884,1.2554979,0.7995141
